{
    "server": "https://metrics.cleaninsights.org/cleaninsights.php",
    "siteId": 23,
    "timeout": 5,
    "persistEveryNTimes": 1,
    "debug": true,
    "campaigns": {
        "circulo-usage": {
            "start": "2022-01-01T00:00:00Z",
            "end": "2023-12-31T23:59:59Z",
            "aggregationPeriodLength": 1,
            "numberOfPeriods": 90,
            "onlyRecordOnce": false,
            "eventAggregationRule": "avg"
        }
    }
}
